%TF.GenerationSoftware,KiCad,Pcbnew,(6.0.1)*%
%TF.CreationDate,2022-04-13T10:59:34+02:00*%
%TF.ProjectId,low_voltage_protection,6c6f775f-766f-46c7-9461-67655f70726f,rev?*%
%TF.SameCoordinates,Original*%
%TF.FileFunction,Copper,L2,Bot*%
%TF.FilePolarity,Positive*%
%FSLAX46Y46*%
G04 Gerber Fmt 4.6, Leading zero omitted, Abs format (unit mm)*
G04 Created by KiCad (PCBNEW (6.0.1)) date 2022-04-13 10:59:34*
%MOMM*%
%LPD*%
G01*
G04 APERTURE LIST*
G04 Aperture macros list*
%AMRoundRect*
0 Rectangle with rounded corners*
0 $1 Rounding radius*
0 $2 $3 $4 $5 $6 $7 $8 $9 X,Y pos of 4 corners*
0 Add a 4 corners polygon primitive as box body*
4,1,4,$2,$3,$4,$5,$6,$7,$8,$9,$2,$3,0*
0 Add four circle primitives for the rounded corners*
1,1,$1+$1,$2,$3*
1,1,$1+$1,$4,$5*
1,1,$1+$1,$6,$7*
1,1,$1+$1,$8,$9*
0 Add four rect primitives between the rounded corners*
20,1,$1+$1,$2,$3,$4,$5,0*
20,1,$1+$1,$4,$5,$6,$7,0*
20,1,$1+$1,$6,$7,$8,$9,0*
20,1,$1+$1,$8,$9,$2,$3,0*%
G04 Aperture macros list end*
%TA.AperFunction,ComponentPad*%
%ADD10RoundRect,0.250000X-0.625000X0.350000X-0.625000X-0.350000X0.625000X-0.350000X0.625000X0.350000X0*%
%TD*%
%TA.AperFunction,ComponentPad*%
%ADD11O,1.750000X1.200000*%
%TD*%
%TA.AperFunction,ComponentPad*%
%ADD12C,0.700000*%
%TD*%
%TA.AperFunction,ComponentPad*%
%ADD13C,4.400000*%
%TD*%
%TA.AperFunction,ComponentPad*%
%ADD14R,2.600000X2.600000*%
%TD*%
%TA.AperFunction,ComponentPad*%
%ADD15C,2.600000*%
%TD*%
%TA.AperFunction,ComponentPad*%
%ADD16RoundRect,0.250000X0.625000X-0.350000X0.625000X0.350000X-0.625000X0.350000X-0.625000X-0.350000X0*%
%TD*%
%TA.AperFunction,ViaPad*%
%ADD17C,0.800000*%
%TD*%
%TA.AperFunction,ViaPad*%
%ADD18C,5.000000*%
%TD*%
%TA.AperFunction,Conductor*%
%ADD19C,0.600000*%
%TD*%
%TA.AperFunction,Conductor*%
%ADD20C,4.000000*%
%TD*%
G04 APERTURE END LIST*
D10*
%TO.P,J3,1,Pin_1*%
%TO.N,/Bat-_Protected*%
X174700000Y-65000000D03*
D11*
%TO.P,J3,2,Pin_2*%
%TO.N,/Bat+_Fused*%
X174700000Y-67000000D03*
%TD*%
D12*
%TO.P,H2,1,1*%
%TO.N,/Bat-_Protected*%
X172550000Y-58000000D03*
X174200000Y-59650000D03*
X175366726Y-56833274D03*
X174200000Y-56350000D03*
X175850000Y-58000000D03*
X175366726Y-59166726D03*
X173033274Y-59166726D03*
X173033274Y-56833274D03*
D13*
X174200000Y-58000000D03*
%TD*%
D14*
%TO.P,J1,1,Pin_1*%
%TO.N,/Bat+_Switched*%
X132500000Y-70400000D03*
D15*
%TO.P,J1,2,Pin_2*%
%TO.N,/Bat+*%
X137580000Y-70400000D03*
%TO.P,J1,3,Pin_3*%
X142660000Y-70400000D03*
%TO.P,J1,4,Pin_4*%
%TO.N,/Bat-*%
X147740000Y-70400000D03*
%TO.P,J1,5,Pin_5*%
X152820000Y-70400000D03*
%TO.P,J1,6,Pin_6*%
%TO.N,/Current_Sensor*%
X157900000Y-70400000D03*
%TO.P,J1,7,Pin_7*%
%TO.N,/Bat+_Fused*%
X162980000Y-70400000D03*
%TO.P,J1,8,Pin_8*%
%TO.N,/Bat-_Protected*%
X168060000Y-70400000D03*
%TD*%
D16*
%TO.P,J2,1,Pin_1*%
%TO.N,/Bat-*%
X134650000Y-55500000D03*
D11*
%TO.P,J2,2,Pin_2*%
%TO.N,/Bat+_Fused*%
X134650000Y-53500000D03*
%TO.P,J2,3,Pin_3*%
X134650000Y-51500000D03*
%TD*%
D12*
%TO.P,H4,1,1*%
%TO.N,/Bat-_Protected*%
X172400000Y-76000000D03*
D13*
X174050000Y-76000000D03*
D12*
X172883274Y-77166726D03*
X175216726Y-77166726D03*
X174050000Y-77650000D03*
X175216726Y-74833274D03*
X174050000Y-74350000D03*
X172883274Y-74833274D03*
X175700000Y-76000000D03*
%TD*%
%TO.P,H3,1,1*%
%TO.N,/Bat-_Protected*%
X126700000Y-74350000D03*
X125533274Y-74833274D03*
X127866726Y-74833274D03*
X125050000Y-76000000D03*
X128350000Y-76000000D03*
X127866726Y-77166726D03*
X126700000Y-77650000D03*
D13*
X126700000Y-76000000D03*
D12*
X125533274Y-77166726D03*
%TD*%
%TO.P,H1,1,1*%
%TO.N,/Bat-_Protected*%
X125533274Y-59066726D03*
X127866726Y-56733274D03*
X125533274Y-56733274D03*
D13*
X126700000Y-57900000D03*
D12*
X127866726Y-59066726D03*
X126700000Y-56250000D03*
X128350000Y-57900000D03*
X125050000Y-57900000D03*
X126700000Y-59550000D03*
%TD*%
D17*
%TO.N,Net-(R4-Pad2)*%
X166700000Y-49500000D03*
%TO.N,/Bat+_Fused*%
X165500000Y-51100000D03*
%TO.N,/Bat-*%
X163300000Y-53400000D03*
X153100000Y-54000000D03*
D18*
%TO.N,/Bat+_Fused*%
X145900000Y-61500000D03*
D17*
%TO.N,Net-(R4-Pad2)*%
X151600000Y-52100000D03*
X153600000Y-57800000D03*
%TD*%
D19*
%TO.N,Net-(R4-Pad2)*%
X154200000Y-49500000D02*
X166700000Y-49500000D01*
X151600000Y-52100000D02*
X154200000Y-49500000D01*
%TO.N,/Bat+_Fused*%
X165500000Y-51100000D02*
X166400000Y-51100000D01*
X167000000Y-51700000D02*
X166400000Y-51100000D01*
X167000000Y-53700000D02*
X167000000Y-51700000D01*
X158759238Y-64340762D02*
X158759238Y-61940762D01*
X158759238Y-61940762D02*
X167000000Y-53700000D01*
D20*
X158759238Y-64340762D02*
X155918477Y-61500000D01*
X162980000Y-68561523D02*
X158759238Y-64340762D01*
D19*
%TO.N,/Bat-*%
X153700000Y-53400000D02*
X153100000Y-54000000D01*
X163300000Y-53400000D02*
X153700000Y-53400000D01*
D20*
%TO.N,/Bat+_Fused*%
X162980000Y-70400000D02*
X162980000Y-68561523D01*
X155918477Y-61500000D02*
X145900000Y-61500000D01*
D19*
%TO.N,Net-(R4-Pad2)*%
X153600000Y-57800000D02*
X151600000Y-55800000D01*
X151600000Y-55800000D02*
X151600000Y-52100000D01*
%TD*%
%TA.AperFunction,Conductor*%
%TO.N,/Bat-_Protected*%
G36*
X170175118Y-49304481D02*
G01*
X170198756Y-49308161D01*
X170207662Y-49306996D01*
X170214761Y-49307083D01*
X170237809Y-49309496D01*
X170253924Y-49312702D01*
X170299340Y-49331514D01*
X170306861Y-49336539D01*
X170319950Y-49345285D01*
X170354714Y-49380049D01*
X170368486Y-49400660D01*
X170387298Y-49446077D01*
X170390692Y-49463138D01*
X170392601Y-49483806D01*
X170391839Y-49488704D01*
X170395297Y-49515142D01*
X170395870Y-49519526D01*
X170396934Y-49536137D01*
X170387183Y-54009283D01*
X170387091Y-54051405D01*
X170385346Y-54072027D01*
X170381904Y-54092485D01*
X170381751Y-54105024D01*
X170382440Y-54109837D01*
X170382441Y-54109850D01*
X170384486Y-54124127D01*
X170385370Y-54132092D01*
X170398158Y-54294582D01*
X170399312Y-54299389D01*
X170399313Y-54299395D01*
X170406891Y-54330958D01*
X170442546Y-54479471D01*
X170515311Y-54655141D01*
X170579573Y-54760008D01*
X170611581Y-54812240D01*
X170614660Y-54817265D01*
X170617875Y-54821029D01*
X170617877Y-54821032D01*
X170696590Y-54913192D01*
X170738149Y-54961851D01*
X170741905Y-54965059D01*
X170876852Y-55080315D01*
X170882735Y-55085340D01*
X170886958Y-55087928D01*
X170886961Y-55087930D01*
X170906005Y-55099600D01*
X171044859Y-55184689D01*
X171157572Y-55231376D01*
X171208398Y-55252429D01*
X171220529Y-55257454D01*
X171285368Y-55273021D01*
X171400605Y-55300687D01*
X171400611Y-55300688D01*
X171405418Y-55301842D01*
X171467597Y-55306736D01*
X171550963Y-55313297D01*
X171561977Y-55314655D01*
X171577632Y-55317288D01*
X171577636Y-55317288D01*
X171582437Y-55318096D01*
X171588792Y-55318174D01*
X171590117Y-55318190D01*
X171590121Y-55318190D01*
X171594976Y-55318249D01*
X171623229Y-55314203D01*
X171640823Y-55312931D01*
X172464949Y-55311209D01*
X172990169Y-55310111D01*
X173058330Y-55329971D01*
X173104935Y-55383529D01*
X173115186Y-55453782D01*
X173085828Y-55518424D01*
X173041379Y-55551351D01*
X172959176Y-55587693D01*
X172952445Y-55591167D01*
X172678355Y-55754233D01*
X172672091Y-55758490D01*
X172486385Y-55901762D01*
X172477917Y-55913423D01*
X172484520Y-55925309D01*
X174200000Y-57640790D01*
X176273287Y-59714076D01*
X176286407Y-59721240D01*
X176296710Y-59713850D01*
X176400751Y-59586055D01*
X176405164Y-59579914D01*
X176459438Y-59493894D01*
X176512705Y-59446955D01*
X176582892Y-59436266D01*
X176647716Y-59465220D01*
X176686596Y-59524625D01*
X176692000Y-59561129D01*
X176692000Y-74685434D01*
X176671998Y-74753555D01*
X176618342Y-74800048D01*
X176548068Y-74810152D01*
X176483488Y-74780658D01*
X176454339Y-74743811D01*
X176452264Y-74739843D01*
X176287771Y-74466621D01*
X176283481Y-74460377D01*
X176147991Y-74286647D01*
X176136199Y-74278178D01*
X176124486Y-74284725D01*
X174050000Y-76359210D01*
X172335816Y-78073395D01*
X172328703Y-78086422D01*
X172336229Y-78096855D01*
X172475483Y-78209020D01*
X172481657Y-78213408D01*
X172752271Y-78382178D01*
X172758931Y-78385794D01*
X172900270Y-78451852D01*
X172953514Y-78498815D01*
X172972915Y-78567110D01*
X172952314Y-78635052D01*
X172898251Y-78681070D01*
X172846920Y-78692000D01*
X127906898Y-78692000D01*
X127838777Y-78671998D01*
X127792284Y-78618342D01*
X127782180Y-78548068D01*
X127811674Y-78483488D01*
X127857160Y-78450232D01*
X127915496Y-78425169D01*
X127922263Y-78421765D01*
X128198042Y-78261580D01*
X128204349Y-78257390D01*
X128414305Y-78098889D01*
X128422761Y-78087496D01*
X128416045Y-78075256D01*
X126341921Y-76001131D01*
X127064408Y-76001131D01*
X127064539Y-76002966D01*
X127068790Y-76009580D01*
X128773285Y-77714074D01*
X128786408Y-77721240D01*
X128796709Y-77713851D01*
X128900751Y-77586055D01*
X128905164Y-77579914D01*
X129075349Y-77310187D01*
X129079005Y-77303536D01*
X129215544Y-77015335D01*
X129218375Y-77008295D01*
X129319306Y-76705767D01*
X129321270Y-76698433D01*
X129385122Y-76385989D01*
X129386194Y-76378465D01*
X129412173Y-76059051D01*
X129412378Y-76054576D01*
X129412927Y-76002221D01*
X129412817Y-75997789D01*
X129411466Y-75975383D01*
X171337388Y-75975383D01*
X171353245Y-76293914D01*
X171354076Y-76301443D01*
X171408085Y-76615759D01*
X171409818Y-76623146D01*
X171501196Y-76928695D01*
X171503799Y-76935808D01*
X171631227Y-77228173D01*
X171634669Y-77234929D01*
X171796296Y-77509865D01*
X171800519Y-77516150D01*
X171951463Y-77713934D01*
X171962989Y-77722396D01*
X171975054Y-77715735D01*
X173677980Y-76012810D01*
X173685592Y-75998869D01*
X173685461Y-75997034D01*
X173681210Y-75990420D01*
X171976445Y-74285656D01*
X171963510Y-74278592D01*
X171952949Y-74286252D01*
X171832766Y-74437072D01*
X171828410Y-74443270D01*
X171661059Y-74714764D01*
X171657479Y-74721440D01*
X171523956Y-75011074D01*
X171521206Y-75018125D01*
X171423444Y-75321708D01*
X171421561Y-75329041D01*
X171360979Y-75642170D01*
X171359992Y-75649670D01*
X171337467Y-75967802D01*
X171337388Y-75975383D01*
X129411466Y-75975383D01*
X129393529Y-75677853D01*
X129392621Y-75670351D01*
X129335319Y-75356593D01*
X129333518Y-75349260D01*
X129238935Y-75044655D01*
X129236263Y-75037583D01*
X129105781Y-74746570D01*
X129102264Y-74739843D01*
X128937771Y-74466621D01*
X128933481Y-74460377D01*
X128797991Y-74286647D01*
X128786199Y-74278178D01*
X128774486Y-74284725D01*
X127072020Y-75987190D01*
X127064408Y-76001131D01*
X126341921Y-76001131D01*
X126340790Y-76000000D01*
X124626443Y-74285654D01*
X124613511Y-74278592D01*
X124602948Y-74286253D01*
X124482766Y-74437072D01*
X124478410Y-74443270D01*
X124311059Y-74714764D01*
X124307476Y-74721446D01*
X124294807Y-74748927D01*
X124248124Y-74802417D01*
X124179932Y-74822176D01*
X124111883Y-74801932D01*
X124065582Y-74748110D01*
X124054381Y-74696527D01*
X124052206Y-73913423D01*
X124977917Y-73913423D01*
X124984520Y-73925309D01*
X126687190Y-75627980D01*
X126701131Y-75635592D01*
X126702966Y-75635461D01*
X126709580Y-75631210D01*
X128414559Y-73926230D01*
X128421552Y-73913423D01*
X172327917Y-73913423D01*
X172334520Y-73925309D01*
X174037190Y-75627980D01*
X174051131Y-75635592D01*
X174052966Y-75635461D01*
X174059580Y-75631210D01*
X175764559Y-73926230D01*
X175771571Y-73913389D01*
X175763777Y-73902701D01*
X175601298Y-73774613D01*
X175595075Y-73770288D01*
X175322702Y-73604357D01*
X175316025Y-73600822D01*
X175025686Y-73468813D01*
X175018616Y-73466099D01*
X174714537Y-73369932D01*
X174707186Y-73368085D01*
X174393746Y-73309142D01*
X174386237Y-73308194D01*
X174067989Y-73287335D01*
X174060424Y-73287295D01*
X173741964Y-73304821D01*
X173734450Y-73305690D01*
X173420405Y-73361348D01*
X173413044Y-73363115D01*
X173107980Y-73456092D01*
X173100860Y-73458740D01*
X172809182Y-73587690D01*
X172802445Y-73591167D01*
X172528355Y-73754233D01*
X172522091Y-73758490D01*
X172336385Y-73901762D01*
X172327917Y-73913423D01*
X128421552Y-73913423D01*
X128421571Y-73913389D01*
X128413777Y-73902701D01*
X128251298Y-73774613D01*
X128245075Y-73770288D01*
X127972702Y-73604357D01*
X127966025Y-73600822D01*
X127675686Y-73468813D01*
X127668616Y-73466099D01*
X127364537Y-73369932D01*
X127357186Y-73368085D01*
X127043746Y-73309142D01*
X127036237Y-73308194D01*
X126717989Y-73287335D01*
X126710424Y-73287295D01*
X126391964Y-73304821D01*
X126384450Y-73305690D01*
X126070405Y-73361348D01*
X126063044Y-73363115D01*
X125757980Y-73456092D01*
X125750860Y-73458740D01*
X125459182Y-73587690D01*
X125452445Y-73591167D01*
X125178355Y-73754233D01*
X125172091Y-73758490D01*
X124986385Y-73901762D01*
X124977917Y-73913423D01*
X124052206Y-73913423D01*
X124046191Y-71748134D01*
X130691500Y-71748134D01*
X130698255Y-71810316D01*
X130749385Y-71946705D01*
X130836739Y-72063261D01*
X130953295Y-72150615D01*
X131089684Y-72201745D01*
X131151866Y-72208500D01*
X133848134Y-72208500D01*
X133910316Y-72201745D01*
X134046705Y-72150615D01*
X134163261Y-72063261D01*
X134250615Y-71946705D01*
X134301745Y-71810316D01*
X134308500Y-71748134D01*
X134308500Y-70352526D01*
X135767050Y-70352526D01*
X135767274Y-70357192D01*
X135767274Y-70357197D01*
X135769946Y-70412812D01*
X135779947Y-70621019D01*
X135832388Y-70884656D01*
X135923220Y-71137646D01*
X136050450Y-71374431D01*
X136053241Y-71378168D01*
X136053245Y-71378175D01*
X136129405Y-71480165D01*
X136211281Y-71589810D01*
X136214590Y-71593090D01*
X136214595Y-71593096D01*
X136398863Y-71775762D01*
X136402180Y-71779050D01*
X136405942Y-71781808D01*
X136405945Y-71781811D01*
X136540441Y-71880427D01*
X136618954Y-71937995D01*
X136623089Y-71940171D01*
X136623093Y-71940173D01*
X136852698Y-72060975D01*
X136856840Y-72063154D01*
X137110613Y-72151775D01*
X137115206Y-72152647D01*
X137370109Y-72201042D01*
X137370112Y-72201042D01*
X137374698Y-72201913D01*
X137502370Y-72206929D01*
X137638625Y-72212283D01*
X137638630Y-72212283D01*
X137643293Y-72212466D01*
X137747607Y-72201042D01*
X137905844Y-72183713D01*
X137905850Y-72183712D01*
X137910497Y-72183203D01*
X137915021Y-72182012D01*
X138165918Y-72115956D01*
X138165920Y-72115955D01*
X138170441Y-72114765D01*
X138277795Y-72068642D01*
X138413120Y-72010502D01*
X138413122Y-72010501D01*
X138417414Y-72008657D01*
X138634979Y-71874024D01*
X138642017Y-71869669D01*
X138642021Y-71869666D01*
X138645990Y-71867210D01*
X138851149Y-71693530D01*
X139028382Y-71491434D01*
X139035631Y-71480165D01*
X139171269Y-71269291D01*
X139173797Y-71265361D01*
X139284199Y-71020278D01*
X139321247Y-70888917D01*
X139355893Y-70766072D01*
X139355894Y-70766069D01*
X139357163Y-70761568D01*
X139375043Y-70621019D01*
X139390688Y-70498045D01*
X139390688Y-70498041D01*
X139391086Y-70494915D01*
X139391170Y-70491733D01*
X139392477Y-70441779D01*
X139393571Y-70400000D01*
X139390043Y-70352526D01*
X140847050Y-70352526D01*
X140847274Y-70357192D01*
X140847274Y-70357197D01*
X140849946Y-70412812D01*
X140859947Y-70621019D01*
X140912388Y-70884656D01*
X141003220Y-71137646D01*
X141130450Y-71374431D01*
X141133241Y-71378168D01*
X141133245Y-71378175D01*
X141209405Y-71480165D01*
X141291281Y-71589810D01*
X141294590Y-71593090D01*
X141294595Y-71593096D01*
X141478863Y-71775762D01*
X141482180Y-71779050D01*
X141485942Y-71781808D01*
X141485945Y-71781811D01*
X141620441Y-71880427D01*
X141698954Y-71937995D01*
X141703089Y-71940171D01*
X141703093Y-71940173D01*
X141932698Y-72060975D01*
X141936840Y-72063154D01*
X142190613Y-72151775D01*
X142195206Y-72152647D01*
X142450109Y-72201042D01*
X142450112Y-72201042D01*
X142454698Y-72201913D01*
X142582370Y-72206929D01*
X142718625Y-72212283D01*
X142718630Y-72212283D01*
X142723293Y-72212466D01*
X142827607Y-72201042D01*
X142985844Y-72183713D01*
X142985850Y-72183712D01*
X142990497Y-72183203D01*
X142995021Y-72182012D01*
X143245918Y-72115956D01*
X143245920Y-72115955D01*
X143250441Y-72114765D01*
X143357795Y-72068642D01*
X143493120Y-72010502D01*
X143493122Y-72010501D01*
X143497414Y-72008657D01*
X143714979Y-71874024D01*
X143722017Y-71869669D01*
X143722021Y-71869666D01*
X143725990Y-71867210D01*
X143931149Y-71693530D01*
X144108382Y-71491434D01*
X144115631Y-71480165D01*
X144251269Y-71269291D01*
X144253797Y-71265361D01*
X144364199Y-71020278D01*
X144401247Y-70888917D01*
X144435893Y-70766072D01*
X144435894Y-70766069D01*
X144437163Y-70761568D01*
X144455043Y-70621019D01*
X144470688Y-70498045D01*
X144470688Y-70498041D01*
X144471086Y-70494915D01*
X144471170Y-70491733D01*
X144472477Y-70441779D01*
X144473571Y-70400000D01*
X144470043Y-70352526D01*
X145927050Y-70352526D01*
X145927274Y-70357192D01*
X145927274Y-70357197D01*
X145929946Y-70412812D01*
X145939947Y-70621019D01*
X145992388Y-70884656D01*
X146083220Y-71137646D01*
X146210450Y-71374431D01*
X146213241Y-71378168D01*
X146213245Y-71378175D01*
X146289405Y-71480165D01*
X146371281Y-71589810D01*
X146374590Y-71593090D01*
X146374595Y-71593096D01*
X146558863Y-71775762D01*
X146562180Y-71779050D01*
X146565942Y-71781808D01*
X146565945Y-71781811D01*
X146700441Y-71880427D01*
X146778954Y-71937995D01*
X146783089Y-71940171D01*
X146783093Y-71940173D01*
X147012698Y-72060975D01*
X147016840Y-72063154D01*
X147270613Y-72151775D01*
X147275206Y-72152647D01*
X147530109Y-72201042D01*
X147530112Y-72201042D01*
X147534698Y-72201913D01*
X147662370Y-72206929D01*
X147798625Y-72212283D01*
X147798630Y-72212283D01*
X147803293Y-72212466D01*
X147907607Y-72201042D01*
X148065844Y-72183713D01*
X148065850Y-72183712D01*
X148070497Y-72183203D01*
X148075021Y-72182012D01*
X148325918Y-72115956D01*
X148325920Y-72115955D01*
X148330441Y-72114765D01*
X148437795Y-72068642D01*
X148573120Y-72010502D01*
X148573122Y-72010501D01*
X148577414Y-72008657D01*
X148794979Y-71874024D01*
X148802017Y-71869669D01*
X148802021Y-71869666D01*
X148805990Y-71867210D01*
X149011149Y-71693530D01*
X149188382Y-71491434D01*
X149195631Y-71480165D01*
X149331269Y-71269291D01*
X149333797Y-71265361D01*
X149444199Y-71020278D01*
X149481247Y-70888917D01*
X149515893Y-70766072D01*
X149515894Y-70766069D01*
X149517163Y-70761568D01*
X149535043Y-70621019D01*
X149550688Y-70498045D01*
X149550688Y-70498041D01*
X149551086Y-70494915D01*
X149551170Y-70491733D01*
X149552477Y-70441779D01*
X149553571Y-70400000D01*
X149550043Y-70352526D01*
X151007050Y-70352526D01*
X151007274Y-70357192D01*
X151007274Y-70357197D01*
X151009946Y-70412812D01*
X151019947Y-70621019D01*
X151072388Y-70884656D01*
X151163220Y-71137646D01*
X151290450Y-71374431D01*
X151293241Y-71378168D01*
X151293245Y-71378175D01*
X151369405Y-71480165D01*
X151451281Y-71589810D01*
X151454590Y-71593090D01*
X151454595Y-71593096D01*
X151638863Y-71775762D01*
X151642180Y-71779050D01*
X151645942Y-71781808D01*
X151645945Y-71781811D01*
X151780441Y-71880427D01*
X151858954Y-71937995D01*
X151863089Y-71940171D01*
X151863093Y-71940173D01*
X152092698Y-72060975D01*
X152096840Y-72063154D01*
X152350613Y-72151775D01*
X152355206Y-72152647D01*
X152610109Y-72201042D01*
X152610112Y-72201042D01*
X152614698Y-72201913D01*
X152742370Y-72206929D01*
X152878625Y-72212283D01*
X152878630Y-72212283D01*
X152883293Y-72212466D01*
X152987607Y-72201042D01*
X153145844Y-72183713D01*
X153145850Y-72183712D01*
X153150497Y-72183203D01*
X153155021Y-72182012D01*
X153405918Y-72115956D01*
X153405920Y-72115955D01*
X153410441Y-72114765D01*
X153517795Y-72068642D01*
X153653120Y-72010502D01*
X153653122Y-72010501D01*
X153657414Y-72008657D01*
X153874979Y-71874024D01*
X153882017Y-71869669D01*
X153882021Y-71869666D01*
X153885990Y-71867210D01*
X154091149Y-71693530D01*
X154268382Y-71491434D01*
X154275631Y-71480165D01*
X154411269Y-71269291D01*
X154413797Y-71265361D01*
X154524199Y-71020278D01*
X154561247Y-70888917D01*
X154595893Y-70766072D01*
X154595894Y-70766069D01*
X154597163Y-70761568D01*
X154615043Y-70621019D01*
X154630688Y-70498045D01*
X154630688Y-70498041D01*
X154631086Y-70494915D01*
X154631170Y-70491733D01*
X154632477Y-70441779D01*
X154633571Y-70400000D01*
X154630043Y-70352526D01*
X156087050Y-70352526D01*
X156087274Y-70357192D01*
X156087274Y-70357197D01*
X156089946Y-70412812D01*
X156099947Y-70621019D01*
X156152388Y-70884656D01*
X156243220Y-71137646D01*
X156370450Y-71374431D01*
X156373241Y-71378168D01*
X156373245Y-71378175D01*
X156449405Y-71480165D01*
X156531281Y-71589810D01*
X156534590Y-71593090D01*
X156534595Y-71593096D01*
X156718863Y-71775762D01*
X156722180Y-71779050D01*
X156725942Y-71781808D01*
X156725945Y-71781811D01*
X156860441Y-71880427D01*
X156938954Y-71937995D01*
X156943089Y-71940171D01*
X156943093Y-71940173D01*
X157172698Y-72060975D01*
X157176840Y-72063154D01*
X157430613Y-72151775D01*
X157435206Y-72152647D01*
X157690109Y-72201042D01*
X157690112Y-72201042D01*
X157694698Y-72201913D01*
X157822370Y-72206929D01*
X157958625Y-72212283D01*
X157958630Y-72212283D01*
X157963293Y-72212466D01*
X158067607Y-72201042D01*
X158225844Y-72183713D01*
X158225850Y-72183712D01*
X158230497Y-72183203D01*
X158235021Y-72182012D01*
X158485918Y-72115956D01*
X158485920Y-72115955D01*
X158490441Y-72114765D01*
X158597795Y-72068642D01*
X158733120Y-72010502D01*
X158733122Y-72010501D01*
X158737414Y-72008657D01*
X158954979Y-71874024D01*
X158962017Y-71869669D01*
X158962021Y-71869666D01*
X158965990Y-71867210D01*
X159171149Y-71693530D01*
X159348382Y-71491434D01*
X159355631Y-71480165D01*
X159491269Y-71269291D01*
X159493797Y-71265361D01*
X159604199Y-71020278D01*
X159641247Y-70888917D01*
X159675893Y-70766072D01*
X159675894Y-70766069D01*
X159677163Y-70761568D01*
X159695043Y-70621019D01*
X159710688Y-70498045D01*
X159710688Y-70498041D01*
X159711086Y-70494915D01*
X159711170Y-70491733D01*
X159712477Y-70441779D01*
X159713571Y-70400000D01*
X159693650Y-70131937D01*
X159692619Y-70127379D01*
X159635361Y-69874331D01*
X159635360Y-69874326D01*
X159634327Y-69869763D01*
X159536902Y-69619238D01*
X159403518Y-69385864D01*
X159356068Y-69325673D01*
X159337416Y-69302014D01*
X159237105Y-69174769D01*
X159041317Y-68990591D01*
X158843407Y-68853295D01*
X158824299Y-68840039D01*
X158824296Y-68840037D01*
X158820457Y-68837374D01*
X158778770Y-68816816D01*
X158583564Y-68720551D01*
X158583561Y-68720550D01*
X158579376Y-68718486D01*
X158533207Y-68703707D01*
X158353657Y-68646233D01*
X158323370Y-68636538D01*
X158318763Y-68635788D01*
X158318760Y-68635787D01*
X158092553Y-68598947D01*
X158058063Y-68593330D01*
X157927719Y-68591624D01*
X157793961Y-68589873D01*
X157793958Y-68589873D01*
X157789284Y-68589812D01*
X157522937Y-68626060D01*
X157518451Y-68627368D01*
X157518449Y-68627368D01*
X157453726Y-68646233D01*
X157264874Y-68701278D01*
X157020763Y-68813815D01*
X157016854Y-68816378D01*
X156799881Y-68958631D01*
X156799876Y-68958635D01*
X156795968Y-68961197D01*
X156595426Y-69140188D01*
X156423544Y-69346854D01*
X156284096Y-69576656D01*
X156282287Y-69580970D01*
X156282285Y-69580974D01*
X156266240Y-69619238D01*
X156180148Y-69824545D01*
X156113981Y-70085077D01*
X156087050Y-70352526D01*
X154630043Y-70352526D01*
X154613650Y-70131937D01*
X154612619Y-70127379D01*
X154555361Y-69874331D01*
X154555360Y-69874326D01*
X154554327Y-69869763D01*
X154456902Y-69619238D01*
X154323518Y-69385864D01*
X154276068Y-69325673D01*
X154257416Y-69302014D01*
X154157105Y-69174769D01*
X153961317Y-68990591D01*
X153763407Y-68853295D01*
X153744299Y-68840039D01*
X153744296Y-68840037D01*
X153740457Y-68837374D01*
X153698770Y-68816816D01*
X153503564Y-68720551D01*
X153503561Y-68720550D01*
X153499376Y-68718486D01*
X153453207Y-68703707D01*
X153273657Y-68646233D01*
X153243370Y-68636538D01*
X153238763Y-68635788D01*
X153238760Y-68635787D01*
X153012553Y-68598947D01*
X152978063Y-68593330D01*
X152847719Y-68591624D01*
X152713961Y-68589873D01*
X152713958Y-68589873D01*
X152709284Y-68589812D01*
X152442937Y-68626060D01*
X152438451Y-68627368D01*
X152438449Y-68627368D01*
X152373726Y-68646233D01*
X152184874Y-68701278D01*
X151940763Y-68813815D01*
X151936854Y-68816378D01*
X151719881Y-68958631D01*
X151719876Y-68958635D01*
X151715968Y-68961197D01*
X151515426Y-69140188D01*
X151343544Y-69346854D01*
X151204096Y-69576656D01*
X151202287Y-69580970D01*
X151202285Y-69580974D01*
X151186240Y-69619238D01*
X151100148Y-69824545D01*
X151033981Y-70085077D01*
X151007050Y-70352526D01*
X149550043Y-70352526D01*
X149533650Y-70131937D01*
X149532619Y-70127379D01*
X149475361Y-69874331D01*
X149475360Y-69874326D01*
X149474327Y-69869763D01*
X149376902Y-69619238D01*
X149243518Y-69385864D01*
X149196068Y-69325673D01*
X149177416Y-69302014D01*
X149077105Y-69174769D01*
X148881317Y-68990591D01*
X148683407Y-68853295D01*
X148664299Y-68840039D01*
X148664296Y-68840037D01*
X148660457Y-68837374D01*
X148618770Y-68816816D01*
X148423564Y-68720551D01*
X148423561Y-68720550D01*
X148419376Y-68718486D01*
X148373207Y-68703707D01*
X148193657Y-68646233D01*
X148163370Y-68636538D01*
X148158763Y-68635788D01*
X148158760Y-68635787D01*
X147932553Y-68598947D01*
X147898063Y-68593330D01*
X147767719Y-68591624D01*
X147633961Y-68589873D01*
X147633958Y-68589873D01*
X147629284Y-68589812D01*
X147362937Y-68626060D01*
X147358451Y-68627368D01*
X147358449Y-68627368D01*
X147293726Y-68646233D01*
X147104874Y-68701278D01*
X146860763Y-68813815D01*
X146856854Y-68816378D01*
X146639881Y-68958631D01*
X146639876Y-68958635D01*
X146635968Y-68961197D01*
X146435426Y-69140188D01*
X146263544Y-69346854D01*
X146124096Y-69576656D01*
X146122287Y-69580970D01*
X146122285Y-69580974D01*
X146106240Y-69619238D01*
X146020148Y-69824545D01*
X145953981Y-70085077D01*
X145927050Y-70352526D01*
X144470043Y-70352526D01*
X144453650Y-70131937D01*
X144452619Y-70127379D01*
X144395361Y-69874331D01*
X144395360Y-69874326D01*
X144394327Y-69869763D01*
X144296902Y-69619238D01*
X144163518Y-69385864D01*
X144116068Y-69325673D01*
X144097416Y-69302014D01*
X143997105Y-69174769D01*
X143801317Y-68990591D01*
X143603407Y-68853295D01*
X143584299Y-68840039D01*
X143584296Y-68840037D01*
X143580457Y-68837374D01*
X143538770Y-68816816D01*
X143343564Y-68720551D01*
X143343561Y-68720550D01*
X143339376Y-68718486D01*
X143293207Y-68703707D01*
X143113657Y-68646233D01*
X143083370Y-68636538D01*
X143078763Y-68635788D01*
X143078760Y-68635787D01*
X142852553Y-68598947D01*
X142818063Y-68593330D01*
X142687719Y-68591624D01*
X142553961Y-68589873D01*
X142553958Y-68589873D01*
X142549284Y-68589812D01*
X142282937Y-68626060D01*
X142278451Y-68627368D01*
X142278449Y-68627368D01*
X142213726Y-68646233D01*
X142024874Y-68701278D01*
X141780763Y-68813815D01*
X141776854Y-68816378D01*
X141559881Y-68958631D01*
X141559876Y-68958635D01*
X141555968Y-68961197D01*
X141355426Y-69140188D01*
X141183544Y-69346854D01*
X141044096Y-69576656D01*
X141042287Y-69580970D01*
X141042285Y-69580974D01*
X141026240Y-69619238D01*
X140940148Y-69824545D01*
X140873981Y-70085077D01*
X140847050Y-70352526D01*
X139390043Y-70352526D01*
X139373650Y-70131937D01*
X139372619Y-70127379D01*
X139315361Y-69874331D01*
X139315360Y-69874326D01*
X139314327Y-69869763D01*
X139216902Y-69619238D01*
X139083518Y-69385864D01*
X139036068Y-69325673D01*
X139017416Y-69302014D01*
X138917105Y-69174769D01*
X138721317Y-68990591D01*
X138523407Y-68853295D01*
X138504299Y-68840039D01*
X138504296Y-68840037D01*
X138500457Y-68837374D01*
X138458770Y-68816816D01*
X138263564Y-68720551D01*
X138263561Y-68720550D01*
X138259376Y-68718486D01*
X138213207Y-68703707D01*
X138033657Y-68646233D01*
X138003370Y-68636538D01*
X137998763Y-68635788D01*
X137998760Y-68635787D01*
X137772553Y-68598947D01*
X137738063Y-68593330D01*
X137607719Y-68591624D01*
X137473961Y-68589873D01*
X137473958Y-68589873D01*
X137469284Y-68589812D01*
X137202937Y-68626060D01*
X137198451Y-68627368D01*
X137198449Y-68627368D01*
X137133726Y-68646233D01*
X136944874Y-68701278D01*
X136700763Y-68813815D01*
X136696854Y-68816378D01*
X136479881Y-68958631D01*
X136479876Y-68958635D01*
X136475968Y-68961197D01*
X136275426Y-69140188D01*
X136103544Y-69346854D01*
X135964096Y-69576656D01*
X135962287Y-69580970D01*
X135962285Y-69580974D01*
X135946240Y-69619238D01*
X135860148Y-69824545D01*
X135793981Y-70085077D01*
X135767050Y-70352526D01*
X134308500Y-70352526D01*
X134308500Y-69051866D01*
X134301745Y-68989684D01*
X134250615Y-68853295D01*
X134163261Y-68736739D01*
X134046705Y-68649385D01*
X133910316Y-68598255D01*
X133848134Y-68591500D01*
X131151866Y-68591500D01*
X131089684Y-68598255D01*
X130953295Y-68649385D01*
X130836739Y-68736739D01*
X130749385Y-68853295D01*
X130698255Y-68989684D01*
X130691500Y-69051866D01*
X130691500Y-71748134D01*
X124046191Y-71748134D01*
X124034274Y-67457878D01*
X124013520Y-59986423D01*
X124978703Y-59986423D01*
X124986227Y-59996854D01*
X125125483Y-60109020D01*
X125131657Y-60113408D01*
X125402271Y-60282178D01*
X125408931Y-60285794D01*
X125697852Y-60420827D01*
X125704905Y-60423620D01*
X126007970Y-60522970D01*
X126015282Y-60524888D01*
X126328092Y-60587109D01*
X126335590Y-60588137D01*
X126653610Y-60612328D01*
X126661173Y-60612446D01*
X126979785Y-60598257D01*
X126987326Y-60597465D01*
X127301924Y-60545101D01*
X127309302Y-60543411D01*
X127615355Y-60453625D01*
X127622450Y-60451071D01*
X127915496Y-60325169D01*
X127922263Y-60321765D01*
X128198042Y-60161580D01*
X128204349Y-60157390D01*
X128414305Y-59998889D01*
X128422761Y-59987496D01*
X128416045Y-59975256D01*
X126712810Y-58272020D01*
X126698869Y-58264408D01*
X126697034Y-58264539D01*
X126690420Y-58268790D01*
X124985818Y-59973393D01*
X124978703Y-59986423D01*
X124013520Y-59986423D01*
X124011094Y-59113185D01*
X124030907Y-59045010D01*
X124084434Y-58998368D01*
X124154679Y-58988069D01*
X124219342Y-59017383D01*
X124252600Y-59062493D01*
X124281227Y-59128173D01*
X124284669Y-59134929D01*
X124446296Y-59409865D01*
X124450519Y-59416150D01*
X124601463Y-59613934D01*
X124612989Y-59622396D01*
X124625054Y-59615735D01*
X126339659Y-57901131D01*
X127064408Y-57901131D01*
X127064539Y-57902966D01*
X127068790Y-57909580D01*
X128773285Y-59614074D01*
X128786408Y-59621240D01*
X128796709Y-59613851D01*
X128900751Y-59486055D01*
X128905164Y-59479914D01*
X129075349Y-59210187D01*
X129079005Y-59203536D01*
X129215544Y-58915335D01*
X129218375Y-58908295D01*
X129319306Y-58605767D01*
X129321270Y-58598433D01*
X129385122Y-58285989D01*
X129386194Y-58278465D01*
X129412173Y-57959051D01*
X129412378Y-57954576D01*
X129412927Y-57902221D01*
X129412817Y-57897789D01*
X129393529Y-57577853D01*
X129392621Y-57570351D01*
X129335319Y-57256593D01*
X129333518Y-57249260D01*
X129238935Y-56944655D01*
X129236263Y-56937583D01*
X129105781Y-56646570D01*
X129102264Y-56639843D01*
X128937771Y-56366621D01*
X128933481Y-56360377D01*
X128797991Y-56186647D01*
X128786199Y-56178178D01*
X128774486Y-56184725D01*
X127072020Y-57887190D01*
X127064408Y-57901131D01*
X126339659Y-57901131D01*
X126700000Y-57540790D01*
X128414561Y-55826228D01*
X128421571Y-55813390D01*
X128413776Y-55802700D01*
X128251298Y-55674613D01*
X128245075Y-55670288D01*
X128033844Y-55541605D01*
X127986075Y-55489082D01*
X127974285Y-55419071D01*
X128002217Y-55353800D01*
X128061003Y-55313992D01*
X128099397Y-55308000D01*
X129446792Y-55308000D01*
X129467696Y-55309746D01*
X129469866Y-55310111D01*
X129487460Y-55313071D01*
X129493626Y-55313146D01*
X129495134Y-55313165D01*
X129495139Y-55313165D01*
X129499999Y-55313224D01*
X129504812Y-55312535D01*
X129504825Y-55312534D01*
X129519102Y-55310489D01*
X129527067Y-55309605D01*
X129689557Y-55296817D01*
X129694364Y-55295663D01*
X129694370Y-55295662D01*
X129861404Y-55255560D01*
X129874446Y-55252429D01*
X130050116Y-55179664D01*
X130180770Y-55099600D01*
X130208014Y-55082905D01*
X130208017Y-55082903D01*
X130212240Y-55080315D01*
X130321151Y-54987296D01*
X130353070Y-54960034D01*
X130356826Y-54956826D01*
X130398101Y-54908500D01*
X130477098Y-54816007D01*
X130477100Y-54816004D01*
X130480315Y-54812240D01*
X130487981Y-54799731D01*
X130533229Y-54725892D01*
X130579664Y-54650116D01*
X130638108Y-54509021D01*
X130650535Y-54479019D01*
X130650536Y-54479017D01*
X130652429Y-54474446D01*
X130678639Y-54365275D01*
X130695662Y-54294370D01*
X130695663Y-54294364D01*
X130696817Y-54289557D01*
X130706428Y-54167441D01*
X130708272Y-54144012D01*
X130709630Y-54132998D01*
X130712263Y-54117343D01*
X130712263Y-54117339D01*
X130713071Y-54112538D01*
X130713224Y-54099999D01*
X130709273Y-54072411D01*
X130708000Y-54054548D01*
X130708000Y-53445604D01*
X133262787Y-53445604D01*
X133272567Y-53656899D01*
X133273971Y-53662724D01*
X133273971Y-53662725D01*
X133303793Y-53786466D01*
X133322125Y-53862534D01*
X133324607Y-53867992D01*
X133324608Y-53867996D01*
X133367978Y-53963382D01*
X133409674Y-54055087D01*
X133489372Y-54167441D01*
X133526225Y-54219393D01*
X133532054Y-54227611D01*
X133536381Y-54231753D01*
X133536386Y-54231759D01*
X133627317Y-54318806D01*
X133662694Y-54380361D01*
X133659175Y-54451270D01*
X133617879Y-54509021D01*
X133606496Y-54516965D01*
X133550652Y-54551522D01*
X133425695Y-54676697D01*
X133421855Y-54682927D01*
X133421854Y-54682928D01*
X133339823Y-54816007D01*
X133332885Y-54827262D01*
X133306436Y-54907005D01*
X133291157Y-54953070D01*
X133277203Y-54995139D01*
X133266500Y-55099600D01*
X133266500Y-55900400D01*
X133266837Y-55903646D01*
X133266837Y-55903650D01*
X133274786Y-55980255D01*
X133277474Y-56006166D01*
X133279655Y-56012702D01*
X133279655Y-56012704D01*
X133300024Y-56073756D01*
X133333450Y-56173946D01*
X133426522Y-56324348D01*
X133551697Y-56449305D01*
X133557927Y-56453145D01*
X133557928Y-56453146D01*
X133695090Y-56537694D01*
X133702262Y-56542115D01*
X133779607Y-56567769D01*
X133863611Y-56595632D01*
X133863613Y-56595632D01*
X133870139Y-56597797D01*
X133876975Y-56598497D01*
X133876978Y-56598498D01*
X133920031Y-56602909D01*
X133974600Y-56608500D01*
X135325400Y-56608500D01*
X135328646Y-56608163D01*
X135328650Y-56608163D01*
X135424308Y-56598238D01*
X135424312Y-56598237D01*
X135431166Y-56597526D01*
X135437702Y-56595345D01*
X135437704Y-56595345D01*
X135569806Y-56551272D01*
X135598946Y-56541550D01*
X135749348Y-56448478D01*
X135874305Y-56323303D01*
X135882276Y-56310372D01*
X135963275Y-56178968D01*
X135963276Y-56178966D01*
X135967115Y-56172738D01*
X136004671Y-56059510D01*
X136020632Y-56011389D01*
X136020632Y-56011387D01*
X136022797Y-56004861D01*
X136033500Y-55900400D01*
X136033500Y-55099600D01*
X136032289Y-55087930D01*
X136023238Y-55000692D01*
X136023237Y-55000688D01*
X136022526Y-54993834D01*
X136011250Y-54960034D01*
X135968868Y-54833002D01*
X135966550Y-54826054D01*
X135873478Y-54675652D01*
X135748303Y-54550695D01*
X135696764Y-54518925D01*
X135649271Y-54466154D01*
X135637847Y-54396082D01*
X135666121Y-54330958D01*
X135685045Y-54312582D01*
X135692920Y-54306396D01*
X135696852Y-54301865D01*
X135696855Y-54301862D01*
X135827621Y-54151167D01*
X135831552Y-54146637D01*
X135834552Y-54141451D01*
X135834555Y-54141447D01*
X135934467Y-53968742D01*
X135937473Y-53963546D01*
X136006861Y-53763729D01*
X136008425Y-53752944D01*
X136036352Y-53560336D01*
X136036352Y-53560333D01*
X136037213Y-53554396D01*
X136027433Y-53343101D01*
X135977875Y-53137466D01*
X135934525Y-53042122D01*
X135892806Y-52950368D01*
X135890326Y-52944913D01*
X135767946Y-52772389D01*
X135615150Y-52626119D01*
X135602005Y-52617631D01*
X135582837Y-52605254D01*
X135536460Y-52551499D01*
X135526507Y-52481203D01*
X135556139Y-52416686D01*
X135573353Y-52400317D01*
X135580446Y-52394746D01*
X135692920Y-52306396D01*
X135696852Y-52301865D01*
X135696855Y-52301862D01*
X135827621Y-52151167D01*
X135831552Y-52146637D01*
X135834552Y-52141451D01*
X135834555Y-52141447D01*
X135934467Y-51968742D01*
X135937473Y-51963546D01*
X136006861Y-51763729D01*
X136012807Y-51722721D01*
X136036352Y-51560336D01*
X136036352Y-51560333D01*
X136037213Y-51554396D01*
X136027433Y-51343101D01*
X135984598Y-51165361D01*
X135979281Y-51143299D01*
X135979280Y-51143297D01*
X135977875Y-51137466D01*
X135957856Y-51093435D01*
X135892806Y-50950368D01*
X135890326Y-50944913D01*
X135767946Y-50772389D01*
X135615150Y-50626119D01*
X135437452Y-50511380D01*
X135377354Y-50487160D01*
X135246832Y-50434558D01*
X135246829Y-50434557D01*
X135241263Y-50432314D01*
X135033663Y-50391772D01*
X135028101Y-50391500D01*
X134322154Y-50391500D01*
X134164434Y-50406548D01*
X133961466Y-50466092D01*
X133956139Y-50468836D01*
X133956138Y-50468836D01*
X133778751Y-50560196D01*
X133778748Y-50560198D01*
X133773420Y-50562942D01*
X133607080Y-50693604D01*
X133603148Y-50698135D01*
X133603145Y-50698138D01*
X133534474Y-50777275D01*
X133468448Y-50853363D01*
X133465448Y-50858549D01*
X133465445Y-50858553D01*
X133439273Y-50903794D01*
X133362527Y-51036454D01*
X133293139Y-51236271D01*
X133292278Y-51242206D01*
X133292278Y-51242208D01*
X133269225Y-51401204D01*
X133262787Y-51445604D01*
X133272567Y-51656899D01*
X133322125Y-51862534D01*
X133324607Y-51867992D01*
X133324608Y-51867996D01*
X133368053Y-51963546D01*
X133409674Y-52055087D01*
X133532054Y-52227611D01*
X133684850Y-52373881D01*
X133689888Y-52377134D01*
X133717163Y-52394746D01*
X133763540Y-52448501D01*
X133773493Y-52518797D01*
X133743861Y-52583314D01*
X133726649Y-52599681D01*
X133607080Y-52693604D01*
X133603148Y-52698135D01*
X133603145Y-52698138D01*
X133534474Y-52777275D01*
X133468448Y-52853363D01*
X133465448Y-52858549D01*
X133465445Y-52858553D01*
X133446346Y-52891567D01*
X133362527Y-53036454D01*
X133293139Y-53236271D01*
X133292278Y-53242206D01*
X133292278Y-53242208D01*
X133282026Y-53312919D01*
X133262787Y-53445604D01*
X130708000Y-53445604D01*
X130708000Y-49549327D01*
X130709500Y-49529942D01*
X130711804Y-49515142D01*
X130713186Y-49506269D01*
X130712021Y-49497363D01*
X130712108Y-49490264D01*
X130714521Y-49467216D01*
X130717727Y-49451101D01*
X130736539Y-49405685D01*
X130750310Y-49385075D01*
X130785075Y-49350310D01*
X130805685Y-49336539D01*
X130851102Y-49317727D01*
X130868163Y-49314333D01*
X130888831Y-49312424D01*
X130893729Y-49313186D01*
X130902631Y-49312022D01*
X130902633Y-49312022D01*
X130925291Y-49309059D01*
X130941612Y-49307995D01*
X152947222Y-49305181D01*
X153015345Y-49325174D01*
X153061845Y-49378824D01*
X153071958Y-49449097D01*
X153042473Y-49513681D01*
X153036335Y-49520274D01*
X152187814Y-50368794D01*
X151348088Y-51208520D01*
X151310242Y-51234532D01*
X151149278Y-51306197D01*
X151149276Y-51306198D01*
X151143248Y-51308882D01*
X151137907Y-51312762D01*
X151137906Y-51312763D01*
X151104171Y-51337273D01*
X150988747Y-51421134D01*
X150984326Y-51426044D01*
X150984325Y-51426045D01*
X150972063Y-51439664D01*
X150860960Y-51563056D01*
X150765473Y-51728444D01*
X150706458Y-51910072D01*
X150705768Y-51916633D01*
X150705768Y-51916635D01*
X150700286Y-51968794D01*
X150686496Y-52100000D01*
X150687186Y-52106565D01*
X150700344Y-52231753D01*
X150706458Y-52289928D01*
X150765473Y-52471556D01*
X150774620Y-52487398D01*
X150791500Y-52550397D01*
X150791500Y-55790786D01*
X150791493Y-55792106D01*
X150790549Y-55882221D01*
X150799711Y-55924597D01*
X150801769Y-55937163D01*
X150806603Y-55980255D01*
X150808919Y-55986906D01*
X150808920Y-55986910D01*
X150817633Y-56011930D01*
X150821796Y-56026742D01*
X150828881Y-56059510D01*
X150847208Y-56098813D01*
X150851990Y-56110589D01*
X150866255Y-56151552D01*
X150869989Y-56157527D01*
X150869990Y-56157530D01*
X150884027Y-56179995D01*
X150891366Y-56193512D01*
X150902559Y-56217514D01*
X150905538Y-56223902D01*
X150909855Y-56229467D01*
X150909856Y-56229469D01*
X150932106Y-56258153D01*
X150939402Y-56268612D01*
X150962374Y-56305376D01*
X150967334Y-56310371D01*
X150967335Y-56310372D01*
X150990976Y-56334179D01*
X150991561Y-56334804D01*
X150992078Y-56335470D01*
X151018068Y-56361460D01*
X151090185Y-56434082D01*
X151091222Y-56434740D01*
X151092451Y-56435843D01*
X152713908Y-58057300D01*
X152744646Y-58107458D01*
X152765473Y-58171556D01*
X152860960Y-58336944D01*
X152865378Y-58341851D01*
X152865379Y-58341852D01*
X152984325Y-58473955D01*
X152988747Y-58478866D01*
X153143248Y-58591118D01*
X153149276Y-58593802D01*
X153149278Y-58593803D01*
X153220667Y-58625587D01*
X153317712Y-58668794D01*
X153411112Y-58688647D01*
X153498056Y-58707128D01*
X153498061Y-58707128D01*
X153504513Y-58708500D01*
X153695487Y-58708500D01*
X153701939Y-58707128D01*
X153701944Y-58707128D01*
X153788888Y-58688647D01*
X153882288Y-58668794D01*
X153979333Y-58625587D01*
X154050722Y-58593803D01*
X154050724Y-58593802D01*
X154056752Y-58591118D01*
X154211253Y-58478866D01*
X154215675Y-58473955D01*
X154334621Y-58341852D01*
X154334622Y-58341851D01*
X154339040Y-58336944D01*
X154434527Y-58171556D01*
X154493542Y-57989928D01*
X154494874Y-57977261D01*
X154512814Y-57806565D01*
X154513504Y-57800000D01*
X154493542Y-57610072D01*
X154434527Y-57428444D01*
X154339040Y-57263056D01*
X154281865Y-57199556D01*
X154215675Y-57126045D01*
X154215674Y-57126044D01*
X154211253Y-57121134D01*
X154056752Y-57008882D01*
X154050724Y-57006198D01*
X154050722Y-57006197D01*
X153889758Y-56934532D01*
X153851912Y-56908520D01*
X152445405Y-55502013D01*
X152411379Y-55439701D01*
X152408500Y-55412918D01*
X152408500Y-54867852D01*
X152428502Y-54799731D01*
X152482158Y-54753238D01*
X152552432Y-54743134D01*
X152608559Y-54765915D01*
X152643248Y-54791118D01*
X152649276Y-54793802D01*
X152649278Y-54793803D01*
X152724429Y-54827262D01*
X152817712Y-54868794D01*
X152911112Y-54888647D01*
X152998056Y-54907128D01*
X152998061Y-54907128D01*
X153004513Y-54908500D01*
X153195487Y-54908500D01*
X153201939Y-54907128D01*
X153201944Y-54907128D01*
X153288887Y-54888647D01*
X153382288Y-54868794D01*
X153475571Y-54827262D01*
X153550722Y-54793803D01*
X153550724Y-54793802D01*
X153556752Y-54791118D01*
X153591440Y-54765916D01*
X153622796Y-54743134D01*
X153711253Y-54678866D01*
X153826659Y-54550695D01*
X153834621Y-54541852D01*
X153834622Y-54541851D01*
X153839040Y-54536944D01*
X153934527Y-54371556D01*
X153955354Y-54307458D01*
X153986092Y-54257300D01*
X153997987Y-54245405D01*
X154060299Y-54211379D01*
X154087082Y-54208500D01*
X162855506Y-54208500D01*
X162906755Y-54219393D01*
X163017712Y-54268794D01*
X163102310Y-54286776D01*
X163198056Y-54307128D01*
X163198061Y-54307128D01*
X163204513Y-54308500D01*
X163395487Y-54308500D01*
X163401939Y-54307128D01*
X163401944Y-54307128D01*
X163497690Y-54286776D01*
X163582288Y-54268794D01*
X163634821Y-54245405D01*
X163750722Y-54193803D01*
X163750724Y-54193802D01*
X163756752Y-54191118D01*
X163775090Y-54177795D01*
X163829203Y-54138479D01*
X163911253Y-54078866D01*
X163926629Y-54061789D01*
X164034621Y-53941852D01*
X164034622Y-53941851D01*
X164039040Y-53936944D01*
X164134527Y-53771556D01*
X164193542Y-53589928D01*
X164213504Y-53400000D01*
X164193542Y-53210072D01*
X164134527Y-53028444D01*
X164039040Y-52863056D01*
X164030313Y-52853363D01*
X163915675Y-52726045D01*
X163915674Y-52726044D01*
X163911253Y-52721134D01*
X163809493Y-52647201D01*
X163762094Y-52612763D01*
X163762093Y-52612762D01*
X163756752Y-52608882D01*
X163750724Y-52606198D01*
X163750722Y-52606197D01*
X163588319Y-52533891D01*
X163588318Y-52533891D01*
X163582288Y-52531206D01*
X163488888Y-52511353D01*
X163401944Y-52492872D01*
X163401939Y-52492872D01*
X163395487Y-52491500D01*
X163204513Y-52491500D01*
X163198061Y-52492872D01*
X163198056Y-52492872D01*
X163111113Y-52511353D01*
X163017712Y-52531206D01*
X163011682Y-52533891D01*
X163011681Y-52533891D01*
X162906755Y-52580607D01*
X162855506Y-52591500D01*
X153709165Y-52591500D01*
X153707846Y-52591493D01*
X153617779Y-52590550D01*
X153610901Y-52592037D01*
X153610891Y-52592038D01*
X153575413Y-52599709D01*
X153562838Y-52601769D01*
X153519745Y-52606603D01*
X153488074Y-52617632D01*
X153473265Y-52621795D01*
X153447371Y-52627393D01*
X153447368Y-52627394D01*
X153440490Y-52628881D01*
X153401187Y-52647208D01*
X153389411Y-52651990D01*
X153348448Y-52666255D01*
X153342473Y-52669989D01*
X153342470Y-52669990D01*
X153320005Y-52684027D01*
X153306488Y-52691366D01*
X153282486Y-52702559D01*
X153276098Y-52705538D01*
X153270533Y-52709855D01*
X153270531Y-52709856D01*
X153241847Y-52732106D01*
X153231388Y-52739402D01*
X153200596Y-52758642D01*
X153200593Y-52758644D01*
X153194624Y-52762374D01*
X153189629Y-52767334D01*
X153189628Y-52767335D01*
X153165821Y-52790976D01*
X153165196Y-52791561D01*
X153164530Y-52792078D01*
X153138540Y-52818068D01*
X153065918Y-52890185D01*
X153065260Y-52891222D01*
X153064157Y-52892451D01*
X152848088Y-53108520D01*
X152810242Y-53134532D01*
X152649278Y-53206197D01*
X152649276Y-53206198D01*
X152643248Y-53208882D01*
X152608559Y-53234085D01*
X152541694Y-53257942D01*
X152472543Y-53241862D01*
X152423062Y-53190949D01*
X152408500Y-53132148D01*
X152408500Y-52550397D01*
X152425380Y-52487398D01*
X152434527Y-52471556D01*
X152455354Y-52407458D01*
X152486092Y-52357300D01*
X154497987Y-50345405D01*
X154560299Y-50311379D01*
X154587082Y-50308500D01*
X164707163Y-50308500D01*
X164775284Y-50328502D01*
X164821777Y-50382158D01*
X164831881Y-50452432D01*
X164800801Y-50518808D01*
X164760960Y-50563056D01*
X164665473Y-50728444D01*
X164606458Y-50910072D01*
X164586496Y-51100000D01*
X164587186Y-51106565D01*
X164601405Y-51241847D01*
X164606458Y-51289928D01*
X164665473Y-51471556D01*
X164760960Y-51636944D01*
X164765378Y-51641851D01*
X164765379Y-51641852D01*
X164880217Y-51769393D01*
X164888747Y-51778866D01*
X165043248Y-51891118D01*
X165049276Y-51893802D01*
X165049278Y-51893803D01*
X165211681Y-51966109D01*
X165217712Y-51968794D01*
X165311112Y-51988647D01*
X165398056Y-52007128D01*
X165398061Y-52007128D01*
X165404513Y-52008500D01*
X165595487Y-52008500D01*
X165601939Y-52007128D01*
X165601944Y-52007128D01*
X165688887Y-51988647D01*
X165782288Y-51968794D01*
X165794076Y-51963546D01*
X165893245Y-51919393D01*
X165944494Y-51908500D01*
X166012918Y-51908500D01*
X166081039Y-51928502D01*
X166102013Y-51945405D01*
X166154595Y-51997987D01*
X166188621Y-52060299D01*
X166191500Y-52087082D01*
X166191500Y-53312919D01*
X166171498Y-53381040D01*
X166154595Y-53402014D01*
X158850415Y-60706193D01*
X158788103Y-60740219D01*
X158717288Y-60735154D01*
X158672225Y-60706193D01*
X157721534Y-59755502D01*
X157718779Y-59752660D01*
X157641770Y-59670654D01*
X157639059Y-59667767D01*
X157549311Y-59593521D01*
X157546341Y-59590983D01*
X157512478Y-59561129D01*
X157458995Y-59513977D01*
X157431223Y-59495103D01*
X157421736Y-59487980D01*
X157398912Y-59469099D01*
X157398907Y-59469096D01*
X157395852Y-59466568D01*
X157306502Y-59409865D01*
X157297549Y-59404183D01*
X157294241Y-59402010D01*
X157201213Y-59338789D01*
X157201212Y-59338788D01*
X157197933Y-59336560D01*
X157168009Y-59321313D01*
X157157700Y-59315432D01*
X157132693Y-59299562D01*
X157132692Y-59299562D01*
X157129346Y-59297438D01*
X157125767Y-59295754D01*
X157125760Y-59295750D01*
X157045934Y-59258187D01*
X157023969Y-59247851D01*
X157020467Y-59246136D01*
X156916693Y-59193261D01*
X156912976Y-59191923D01*
X156912965Y-59191918D01*
X156885098Y-59181885D01*
X156874134Y-59177344D01*
X156847325Y-59164729D01*
X156847318Y-59164726D01*
X156843743Y-59163044D01*
X156732984Y-59127056D01*
X156729322Y-59125803D01*
X156619710Y-59086340D01*
X156586933Y-59079014D01*
X156575484Y-59075881D01*
X156547320Y-59066730D01*
X156547316Y-59066729D01*
X156543549Y-59065505D01*
X156440299Y-59045809D01*
X156429165Y-59043685D01*
X156425341Y-59042894D01*
X156311669Y-59017485D01*
X156278239Y-59014325D01*
X156266487Y-59012652D01*
X156237395Y-59007102D01*
X156237386Y-59007101D01*
X156233497Y-59006359D01*
X156117281Y-58999048D01*
X156113394Y-58998743D01*
X155997427Y-58987780D01*
X155993476Y-58987904D01*
X155993470Y-58987904D01*
X155881033Y-58991438D01*
X155877075Y-58991500D01*
X147599585Y-58991500D01*
X147529309Y-58970082D01*
X147447836Y-58915335D01*
X147434047Y-58906069D01*
X147125741Y-58746940D01*
X146801189Y-58624302D01*
X146797668Y-58623418D01*
X146797663Y-58623416D01*
X146636378Y-58582904D01*
X146464692Y-58539780D01*
X146442476Y-58536855D01*
X146124315Y-58494968D01*
X146124307Y-58494967D01*
X146120711Y-58494494D01*
X145976045Y-58492221D01*
X145777446Y-58489101D01*
X145777442Y-58489101D01*
X145773804Y-58489044D01*
X145770190Y-58489405D01*
X145770184Y-58489405D01*
X145526843Y-58513694D01*
X145428569Y-58523503D01*
X145190465Y-58575418D01*
X145106145Y-58593803D01*
X145089583Y-58597414D01*
X145086156Y-58598587D01*
X145086150Y-58598589D01*
X144765127Y-58708500D01*
X144761339Y-58709797D01*
X144448188Y-58859163D01*
X144154279Y-59043532D01*
X144151443Y-59045804D01*
X144151436Y-59045809D01*
X143969062Y-59191918D01*
X143883509Y-59260459D01*
X143880958Y-59263037D01*
X143654617Y-59491761D01*
X143639466Y-59507071D01*
X143637225Y-59509929D01*
X143513465Y-59667767D01*
X143425386Y-59780098D01*
X143244105Y-60075921D01*
X143242580Y-60079206D01*
X143242578Y-60079210D01*
X143182323Y-60209020D01*
X143098027Y-60390620D01*
X142989087Y-60720023D01*
X142988351Y-60723578D01*
X142988350Y-60723581D01*
X142973500Y-60795288D01*
X142918730Y-61059764D01*
X142887888Y-61405341D01*
X142896970Y-61752171D01*
X142945856Y-62095660D01*
X143033897Y-62431253D01*
X143159927Y-62754503D01*
X143322275Y-63061126D01*
X143324325Y-63064109D01*
X143324327Y-63064112D01*
X143516733Y-63344064D01*
X143516739Y-63344071D01*
X143518790Y-63347056D01*
X143746866Y-63608505D01*
X144003481Y-63842006D01*
X144285233Y-64044466D01*
X144588388Y-64213200D01*
X144908928Y-64345972D01*
X144912422Y-64346967D01*
X144912424Y-64346968D01*
X145239103Y-64440025D01*
X145239108Y-64440026D01*
X145242604Y-64441022D01*
X145439304Y-64473233D01*
X145581412Y-64496504D01*
X145581419Y-64496505D01*
X145584993Y-64497090D01*
X145758275Y-64505262D01*
X145927931Y-64513263D01*
X145927932Y-64513263D01*
X145931558Y-64513434D01*
X145940415Y-64512830D01*
X146274073Y-64490084D01*
X146274081Y-64490083D01*
X146277704Y-64489836D01*
X146281279Y-64489173D01*
X146281282Y-64489173D01*
X146615279Y-64427270D01*
X146615283Y-64427269D01*
X146618844Y-64426609D01*
X146950456Y-64324592D01*
X147268145Y-64185136D01*
X147273182Y-64182193D01*
X147540968Y-64025712D01*
X147604538Y-64008500D01*
X154827232Y-64008500D01*
X154895353Y-64028502D01*
X154916327Y-64045405D01*
X156929714Y-66058793D01*
X159574630Y-68703707D01*
X160434595Y-69563672D01*
X160468621Y-69625984D01*
X160471500Y-69652767D01*
X160471500Y-70478838D01*
X160486359Y-70715020D01*
X160545505Y-71025072D01*
X160546732Y-71028848D01*
X160622119Y-71260864D01*
X160643044Y-71325266D01*
X160644731Y-71328852D01*
X160644733Y-71328856D01*
X160775750Y-71607283D01*
X160775754Y-71607290D01*
X160777438Y-71610869D01*
X160946568Y-71877375D01*
X160949093Y-71880427D01*
X161141428Y-72112919D01*
X161147767Y-72120582D01*
X161377860Y-72336654D01*
X161633221Y-72522184D01*
X161909821Y-72674247D01*
X161913490Y-72675700D01*
X161913495Y-72675702D01*
X162199628Y-72788990D01*
X162203298Y-72790443D01*
X162509025Y-72868940D01*
X162822179Y-72908500D01*
X163137821Y-72908500D01*
X163450975Y-72868940D01*
X163756702Y-72790443D01*
X163760372Y-72788990D01*
X164046505Y-72675702D01*
X164046510Y-72675700D01*
X164050179Y-72674247D01*
X164326779Y-72522184D01*
X164582140Y-72336654D01*
X164812233Y-72120582D01*
X164818573Y-72112919D01*
X165010907Y-71880427D01*
X165013432Y-71877375D01*
X165034037Y-71844906D01*
X166979839Y-71844906D01*
X166988553Y-71856427D01*
X167095452Y-71934809D01*
X167103351Y-71939745D01*
X167332905Y-72060519D01*
X167341454Y-72064236D01*
X167586327Y-72149749D01*
X167595336Y-72152163D01*
X167850166Y-72200544D01*
X167859423Y-72201598D01*
X168118607Y-72211783D01*
X168127921Y-72211457D01*
X168385753Y-72183220D01*
X168394930Y-72181519D01*
X168645758Y-72115481D01*
X168654574Y-72112445D01*
X168892880Y-72010062D01*
X168901167Y-72005748D01*
X169121718Y-71869266D01*
X169129268Y-71863780D01*
X169134559Y-71859301D01*
X169142997Y-71846497D01*
X169136935Y-71836145D01*
X168072812Y-70772022D01*
X168058868Y-70764408D01*
X168057035Y-70764539D01*
X168050420Y-70768790D01*
X166986497Y-71832713D01*
X166979839Y-71844906D01*
X165034037Y-71844906D01*
X165182562Y-71610869D01*
X165184246Y-71607290D01*
X165184250Y-71607283D01*
X165315267Y-71328856D01*
X165315269Y-71328852D01*
X165316956Y-71325266D01*
X165337882Y-71260864D01*
X165413268Y-71028848D01*
X165414495Y-71025072D01*
X165473641Y-70715020D01*
X165488500Y-70478838D01*
X165488500Y-70357211D01*
X166247775Y-70357211D01*
X166260220Y-70616288D01*
X166261356Y-70625543D01*
X166311961Y-70879945D01*
X166314449Y-70888917D01*
X166402095Y-71133033D01*
X166405895Y-71141568D01*
X166528658Y-71370042D01*
X166533666Y-71377904D01*
X166603720Y-71471716D01*
X166614979Y-71480165D01*
X166627397Y-71473393D01*
X167687978Y-70412812D01*
X167694356Y-70401132D01*
X168424408Y-70401132D01*
X168424539Y-70402965D01*
X168428790Y-70409580D01*
X169496094Y-71476884D01*
X169508474Y-71483644D01*
X169516815Y-71477400D01*
X169650832Y-71269048D01*
X169655275Y-71260864D01*
X169761807Y-71024370D01*
X169764997Y-71015605D01*
X169835402Y-70765972D01*
X169837262Y-70756830D01*
X169870187Y-70498019D01*
X169870668Y-70491733D01*
X169872987Y-70403160D01*
X169872836Y-70396851D01*
X169853501Y-70136663D01*
X169852125Y-70127457D01*
X169794878Y-69874467D01*
X169792154Y-69865556D01*
X169698143Y-69623806D01*
X169694132Y-69615397D01*
X169565422Y-69390202D01*
X169560211Y-69382476D01*
X169516996Y-69327658D01*
X169505071Y-69319187D01*
X169493537Y-69325673D01*
X168432022Y-70387188D01*
X168424408Y-70401132D01*
X167694356Y-70401132D01*
X167695592Y-70398868D01*
X167695461Y-70397035D01*
X167691210Y-70390420D01*
X166625816Y-69325026D01*
X166612507Y-69317758D01*
X166602472Y-69324878D01*
X166586937Y-69343556D01*
X166581531Y-69351135D01*
X166446965Y-69572891D01*
X166442736Y-69581192D01*
X166342432Y-69820389D01*
X166339471Y-69829239D01*
X166275628Y-70080625D01*
X166274006Y-70089822D01*
X166248020Y-70347885D01*
X166247775Y-70357211D01*
X165488500Y-70357211D01*
X165488500Y-68952689D01*
X166977102Y-68952689D01*
X166981675Y-68962465D01*
X168047188Y-70027978D01*
X168061132Y-70035592D01*
X168062965Y-70035461D01*
X168069580Y-70031210D01*
X169134349Y-68966441D01*
X169140733Y-68954751D01*
X169131321Y-68942641D01*
X168984045Y-68840471D01*
X168976010Y-68835738D01*
X168743376Y-68721016D01*
X168734743Y-68717528D01*
X168487703Y-68638450D01*
X168478643Y-68636274D01*
X168222630Y-68594580D01*
X168213343Y-68593768D01*
X167953992Y-68590373D01*
X167944681Y-68590943D01*
X167687682Y-68625919D01*
X167678546Y-68627860D01*
X167429543Y-68700439D01*
X167420800Y-68703707D01*
X167185252Y-68812296D01*
X167177097Y-68816816D01*
X166986240Y-68941947D01*
X166977102Y-68952689D01*
X165488500Y-68952689D01*
X165488500Y-68602905D01*
X165488562Y-68598947D01*
X165492095Y-68486531D01*
X165492095Y-68486525D01*
X165492219Y-68482573D01*
X165481263Y-68366662D01*
X165480953Y-68362717D01*
X165473890Y-68250466D01*
X165473641Y-68246503D01*
X165467347Y-68213507D01*
X165465675Y-68201762D01*
X165462888Y-68172277D01*
X165462515Y-68168331D01*
X165437106Y-68054659D01*
X165436315Y-68050835D01*
X165431766Y-68026991D01*
X165414495Y-67936451D01*
X165413270Y-67932680D01*
X165404119Y-67904516D01*
X165400986Y-67893066D01*
X165397424Y-67877132D01*
X165393660Y-67860290D01*
X165354197Y-67750678D01*
X165352944Y-67747016D01*
X165316956Y-67636257D01*
X165315274Y-67632682D01*
X165315271Y-67632675D01*
X165302656Y-67605866D01*
X165298115Y-67594902D01*
X165288082Y-67567035D01*
X165288077Y-67567024D01*
X165286739Y-67563307D01*
X165233864Y-67459533D01*
X165232142Y-67456017D01*
X165184250Y-67354240D01*
X165184246Y-67354233D01*
X165182562Y-67350654D01*
X165164568Y-67322299D01*
X165158686Y-67311989D01*
X165145236Y-67285592D01*
X165143440Y-67282067D01*
X165134827Y-67269393D01*
X165077990Y-67185759D01*
X165075817Y-67182451D01*
X165054480Y-67148830D01*
X165013432Y-67084148D01*
X165010901Y-67081088D01*
X164992020Y-67058264D01*
X164984893Y-67048772D01*
X164984640Y-67048399D01*
X164966023Y-67021005D01*
X164899548Y-66945604D01*
X173312787Y-66945604D01*
X173322567Y-67156899D01*
X173323971Y-67162724D01*
X173323971Y-67162725D01*
X173362429Y-67322300D01*
X173372125Y-67362534D01*
X173374607Y-67367992D01*
X173374608Y-67367996D01*
X173416246Y-67459572D01*
X173459674Y-67555087D01*
X173582054Y-67727611D01*
X173734850Y-67873881D01*
X173912548Y-67988620D01*
X173918114Y-67990863D01*
X174103168Y-68065442D01*
X174103171Y-68065443D01*
X174108737Y-68067686D01*
X174316337Y-68108228D01*
X174321899Y-68108500D01*
X175027846Y-68108500D01*
X175185566Y-68093452D01*
X175388534Y-68033908D01*
X175472111Y-67990863D01*
X175571249Y-67939804D01*
X175571252Y-67939802D01*
X175576580Y-67937058D01*
X175742920Y-67806396D01*
X175746852Y-67801865D01*
X175746855Y-67801862D01*
X175877621Y-67651167D01*
X175881552Y-67646637D01*
X175884552Y-67641451D01*
X175884555Y-67641447D01*
X175984467Y-67468742D01*
X175987473Y-67463546D01*
X176056861Y-67263729D01*
X176068166Y-67185759D01*
X176086352Y-67060336D01*
X176086352Y-67060333D01*
X176087213Y-67054396D01*
X176077433Y-66843101D01*
X176027875Y-66637466D01*
X175984525Y-66542122D01*
X175942806Y-66450368D01*
X175940326Y-66444913D01*
X175817946Y-66272389D01*
X175813623Y-66268251D01*
X175813619Y-66268246D01*
X175722309Y-66180836D01*
X175686933Y-66119280D01*
X175690452Y-66048371D01*
X175731749Y-65990621D01*
X175743137Y-65982674D01*
X175792807Y-65951937D01*
X175804208Y-65942901D01*
X175918739Y-65828171D01*
X175927751Y-65816760D01*
X176012816Y-65678757D01*
X176018963Y-65665576D01*
X176070138Y-65511290D01*
X176073005Y-65497914D01*
X176082672Y-65403562D01*
X176083000Y-65397146D01*
X176083000Y-65272115D01*
X176078525Y-65256876D01*
X176077135Y-65255671D01*
X176069452Y-65254000D01*
X173335116Y-65254000D01*
X173319877Y-65258475D01*
X173318672Y-65259865D01*
X173317001Y-65267548D01*
X173317001Y-65397095D01*
X173317338Y-65403614D01*
X173327257Y-65499206D01*
X173330149Y-65512600D01*
X173381588Y-65666784D01*
X173387761Y-65679962D01*
X173473063Y-65817807D01*
X173482099Y-65829208D01*
X173596829Y-65943739D01*
X173608240Y-65952751D01*
X173653655Y-65980745D01*
X173701148Y-66033517D01*
X173712572Y-66103589D01*
X173684298Y-66168713D01*
X173665375Y-66187088D01*
X173657080Y-66193604D01*
X173653148Y-66198135D01*
X173653145Y-66198138D01*
X173584474Y-66277275D01*
X173518448Y-66353363D01*
X173515448Y-66358549D01*
X173515445Y-66358553D01*
X173468312Y-66440026D01*
X173412527Y-66536454D01*
X173343139Y-66736271D01*
X173342278Y-66742206D01*
X173342278Y-66742208D01*
X173328356Y-66838230D01*
X173312787Y-66945604D01*
X164899548Y-66945604D01*
X164889014Y-66933656D01*
X164886479Y-66930689D01*
X164812233Y-66840941D01*
X164727340Y-66761221D01*
X164724499Y-66758467D01*
X162693916Y-64727885D01*
X173317000Y-64727885D01*
X173321475Y-64743124D01*
X173322865Y-64744329D01*
X173330548Y-64746000D01*
X174427885Y-64746000D01*
X174443124Y-64741525D01*
X174444329Y-64740135D01*
X174446000Y-64732452D01*
X174446000Y-64727885D01*
X174954000Y-64727885D01*
X174958475Y-64743124D01*
X174959865Y-64744329D01*
X174967548Y-64746000D01*
X176064884Y-64746000D01*
X176080123Y-64741525D01*
X176081328Y-64740135D01*
X176082999Y-64732452D01*
X176082999Y-64602905D01*
X176082662Y-64596386D01*
X176072743Y-64500794D01*
X176069851Y-64487400D01*
X176018412Y-64333216D01*
X176012239Y-64320038D01*
X175926937Y-64182193D01*
X175917901Y-64170792D01*
X175803171Y-64056261D01*
X175791760Y-64047249D01*
X175653757Y-63962184D01*
X175640576Y-63956037D01*
X175486290Y-63904862D01*
X175472914Y-63901995D01*
X175378562Y-63892328D01*
X175372145Y-63892000D01*
X174972115Y-63892000D01*
X174956876Y-63896475D01*
X174955671Y-63897865D01*
X174954000Y-63905548D01*
X174954000Y-64727885D01*
X174446000Y-64727885D01*
X174446000Y-63910116D01*
X174441525Y-63894877D01*
X174440135Y-63893672D01*
X174432452Y-63892001D01*
X174027905Y-63892001D01*
X174021386Y-63892338D01*
X173925794Y-63902257D01*
X173912400Y-63905149D01*
X173758216Y-63956588D01*
X173745038Y-63962761D01*
X173607193Y-64048063D01*
X173595792Y-64057099D01*
X173481261Y-64171829D01*
X173472249Y-64183240D01*
X173387184Y-64321243D01*
X173381037Y-64334424D01*
X173329862Y-64488710D01*
X173326995Y-64502086D01*
X173317328Y-64596438D01*
X173317000Y-64602855D01*
X173317000Y-64727885D01*
X162693916Y-64727885D01*
X160477268Y-62511238D01*
X159993806Y-62027776D01*
X159959781Y-61965464D01*
X159964845Y-61894649D01*
X159993806Y-61849586D01*
X161756969Y-60086423D01*
X172478703Y-60086423D01*
X172486227Y-60096854D01*
X172625483Y-60209020D01*
X172631657Y-60213408D01*
X172902271Y-60382178D01*
X172908931Y-60385794D01*
X173197852Y-60520827D01*
X173204905Y-60523620D01*
X173507970Y-60622970D01*
X173515282Y-60624888D01*
X173828092Y-60687109D01*
X173835590Y-60688137D01*
X174153610Y-60712328D01*
X174161173Y-60712446D01*
X174479785Y-60698257D01*
X174487326Y-60697465D01*
X174801924Y-60645101D01*
X174809302Y-60643411D01*
X175115355Y-60553625D01*
X175122450Y-60551071D01*
X175415496Y-60425169D01*
X175422263Y-60421765D01*
X175698042Y-60261580D01*
X175704349Y-60257390D01*
X175914305Y-60098889D01*
X175922761Y-60087496D01*
X175916045Y-60075256D01*
X174212810Y-58372020D01*
X174198869Y-58364408D01*
X174197034Y-58364539D01*
X174190420Y-58368790D01*
X172485818Y-60073393D01*
X172478703Y-60086423D01*
X161756969Y-60086423D01*
X163868009Y-57975383D01*
X171487388Y-57975383D01*
X171503245Y-58293914D01*
X171504076Y-58301443D01*
X171558085Y-58615759D01*
X171559818Y-58623146D01*
X171651196Y-58928695D01*
X171653799Y-58935808D01*
X171781227Y-59228173D01*
X171784669Y-59234929D01*
X171946296Y-59509865D01*
X171950519Y-59516150D01*
X172101463Y-59713934D01*
X172112989Y-59722396D01*
X172125054Y-59715735D01*
X173827980Y-58012810D01*
X173835592Y-57998869D01*
X173835461Y-57997034D01*
X173831210Y-57990420D01*
X172126445Y-56285656D01*
X172113510Y-56278592D01*
X172102949Y-56286252D01*
X171982766Y-56437072D01*
X171978410Y-56443270D01*
X171811059Y-56714764D01*
X171807479Y-56721440D01*
X171673956Y-57011074D01*
X171671206Y-57018125D01*
X171573444Y-57321708D01*
X171571561Y-57329041D01*
X171510979Y-57642170D01*
X171509992Y-57649670D01*
X171487467Y-57967802D01*
X171487388Y-57975383D01*
X163868009Y-57975383D01*
X167565158Y-54278234D01*
X167566095Y-54277306D01*
X167625475Y-54219157D01*
X167625476Y-54219156D01*
X167630507Y-54214229D01*
X167653998Y-54177779D01*
X167661417Y-54167454D01*
X167688476Y-54133557D01*
X167691540Y-54127218D01*
X167691543Y-54127214D01*
X167703074Y-54103362D01*
X167710601Y-54089949D01*
X167724947Y-54067687D01*
X167724948Y-54067684D01*
X167728765Y-54061762D01*
X167731176Y-54055139D01*
X167743592Y-54021027D01*
X167748553Y-54009283D01*
X167764352Y-53976601D01*
X167764353Y-53976599D01*
X167767421Y-53970252D01*
X167774966Y-53937573D01*
X167779334Y-53922825D01*
X167790803Y-53891315D01*
X167791685Y-53884329D01*
X167791687Y-53884323D01*
X167796238Y-53848299D01*
X167798474Y-53835747D01*
X167806638Y-53800386D01*
X167806638Y-53800383D01*
X167808224Y-53793515D01*
X167808309Y-53769393D01*
X167808366Y-53752944D01*
X167808395Y-53752062D01*
X167808500Y-53751231D01*
X167808500Y-53714428D01*
X167808503Y-53713641D01*
X167808845Y-53615657D01*
X167808845Y-53615652D01*
X167808857Y-53612130D01*
X167808589Y-53610930D01*
X167808500Y-53609293D01*
X167808500Y-51709165D01*
X167808507Y-51707846D01*
X167809376Y-51624821D01*
X167809450Y-51617779D01*
X167807963Y-51610901D01*
X167807962Y-51610891D01*
X167800291Y-51575413D01*
X167798230Y-51562831D01*
X167794182Y-51526743D01*
X167793397Y-51519745D01*
X167782368Y-51488074D01*
X167778205Y-51473265D01*
X167772607Y-51447371D01*
X167772606Y-51447368D01*
X167771119Y-51440490D01*
X167752792Y-51401187D01*
X167748010Y-51389411D01*
X167733745Y-51348448D01*
X167730010Y-51342470D01*
X167715973Y-51320005D01*
X167708634Y-51306488D01*
X167697441Y-51282486D01*
X167697440Y-51282485D01*
X167694462Y-51276098D01*
X167667894Y-51241847D01*
X167660598Y-51231388D01*
X167641358Y-51200596D01*
X167641356Y-51200593D01*
X167637626Y-51194624D01*
X167609024Y-51165821D01*
X167608439Y-51165196D01*
X167607922Y-51164530D01*
X167581932Y-51138540D01*
X167509815Y-51065918D01*
X167508778Y-51065260D01*
X167507549Y-51064157D01*
X166994224Y-50550832D01*
X166960198Y-50488520D01*
X166965263Y-50417705D01*
X167007810Y-50360869D01*
X167032070Y-50346630D01*
X167150722Y-50293803D01*
X167150724Y-50293802D01*
X167156752Y-50291118D01*
X167311253Y-50178866D01*
X167439040Y-50036944D01*
X167534527Y-49871556D01*
X167593542Y-49689928D01*
X167613504Y-49500000D01*
X167607456Y-49442460D01*
X167620228Y-49372624D01*
X167668729Y-49320777D01*
X167732750Y-49303291D01*
X168285725Y-49303220D01*
X170155724Y-49302981D01*
X170175118Y-49304481D01*
G37*
%TD.AperFunction*%
%TA.AperFunction,Conductor*%
G36*
X126032683Y-76412273D02*
G01*
X126077746Y-76441234D01*
X126258766Y-76622254D01*
X126292792Y-76684566D01*
X126287727Y-76755381D01*
X126258766Y-76800444D01*
X125166992Y-77892218D01*
X125104680Y-77926244D01*
X125033865Y-77921179D01*
X124988802Y-77892218D01*
X124807782Y-77711198D01*
X124773756Y-77648886D01*
X124778821Y-77578071D01*
X124807782Y-77533008D01*
X125899556Y-76441234D01*
X125961868Y-76407208D01*
X126032683Y-76412273D01*
G37*
%TD.AperFunction*%
%TA.AperFunction,Conductor*%
G36*
X174805381Y-76412273D02*
G01*
X174850444Y-76441234D01*
X175942218Y-77533008D01*
X175976244Y-77595320D01*
X175971179Y-77666135D01*
X175942218Y-77711198D01*
X175761198Y-77892218D01*
X175698886Y-77926244D01*
X175628071Y-77921179D01*
X175583008Y-77892218D01*
X174491234Y-76800444D01*
X174457208Y-76738132D01*
X174462273Y-76667317D01*
X174491234Y-76622254D01*
X174672254Y-76441234D01*
X174734566Y-76407208D01*
X174805381Y-76412273D01*
G37*
%TD.AperFunction*%
%TA.AperFunction,Conductor*%
G36*
X175866135Y-56078821D02*
G01*
X175911198Y-56107782D01*
X175931676Y-56128260D01*
X175936532Y-56133395D01*
X176088058Y-56302953D01*
X176118536Y-56367075D01*
X176109508Y-56437496D01*
X176083202Y-56476008D01*
X175000444Y-57558766D01*
X174938132Y-57592792D01*
X174867317Y-57587727D01*
X174822254Y-57558766D01*
X174641234Y-57377746D01*
X174607208Y-57315434D01*
X174612273Y-57244619D01*
X174641234Y-57199556D01*
X175733008Y-56107782D01*
X175795320Y-56073756D01*
X175866135Y-56078821D01*
G37*
%TD.AperFunction*%
%TA.AperFunction,Conductor*%
G36*
X125121929Y-55978821D02*
G01*
X125166992Y-56007782D01*
X126258766Y-57099556D01*
X126292792Y-57161868D01*
X126287727Y-57232683D01*
X126258766Y-57277746D01*
X126077746Y-57458766D01*
X126015434Y-57492792D01*
X125944619Y-57487727D01*
X125899556Y-57458766D01*
X124807782Y-56366992D01*
X124773756Y-56304680D01*
X124778821Y-56233865D01*
X124807782Y-56188802D01*
X124988802Y-56007782D01*
X125051114Y-55973756D01*
X125121929Y-55978821D01*
G37*
%TD.AperFunction*%
%TD*%
M02*
